…
# Analiza rezultata

Analiza rezultata je uradjena u R jeziku, koristeci R Markdown koji
omogucuje reprodukciju analize. Kod koji je koriscen ce biti vidljiv u
ovom dokumentu radi transparentnosti, a samim time i lakseg uocavanja
gresaka.

``` r
require(tidyverse)
require(cowplot)

elections <- read_csv("izbori.csv")

elections
#> # A tibble: 8,433 x 33
#>    Okrug `Naziv okruga` Opstina `Naziv opstine` `Biracko mesto` `Upisani biraci`
#>    <dbl> <chr>            <dbl> <chr>                     <dbl>            <dbl>
#>  1     0 Град Београд     70092 Барајево                      1              655
#>  2     0 Град Београд     70092 Барајево                      2             1329
#>  3     0 Град Београд     70092 Барајево                      3              578
#>  4     0 Град Београд     70092 Барајево                      4              706
#>  5     0 Град Београд     70092 Барајево                      5              734
#>  6     0 Град Београд     70092 Барајево                      6              830
#>  7     0 Град Београд     70092 Барајево                      7             1354
#>  8     0 Град Београд     70092 Барајево                      8              726
#>  9     0 Град Београд     70092 Барајево                      9              985
#> 10     0 Град Београд     70092 Барајево                     10              649
#> # … with 8,423 more rows, and 27 more variables: Primljeni <dbl>,
#> #   Neupotrebljeni <dbl>, Glasali <dbl>, `U glasackoj kutiji` <dbl>,
#> #   Nevazeci <dbl>, Vazeci <dbl>, `Aleksandar Vucic` <dbl>, `Ivica
#> #   Dacic` <dbl>, `Vojislav Seselj` <dbl>, `Istvan Pastor` <dbl>, `Aleksandar
#> #   Sapic` <dbl>, `Gojko Zivkovic` <dbl>, UDS <dbl>, `Muamer Zukorlic` <dbl>,
#> #   Metla <dbl>, `Milan Stamatovic` <dbl>, SDA <dbl>, Zavetnici <dbl>, `Narodni
#> #   Blok` <dbl>, PSG <dbl>, Suverenisti <dbl>, `Ujedinjena Dolina` <dbl>,
#> #   `Grupa Gradjana 1 od 5` <dbl>, `Nek Maske Spadnu` <dbl>, `Ruska
#> #   Stranka\n` <dbl>, `Cedomir Jovanovic` <dbl>, Levijatan <dbl>
```
…
izlaznost
#> # A tibble: 32 x 10
#>    `Naziv okruga` `Upisani biraci` Primljeni Neupotrebljeni Glasali
#>    <fct>                     <dbl>     <dbl>          <dbl>   <dbl>
#>  1 Борски округ             119034    118989          61239   57750
#>  2 Браничевски о…           179528    179479          86591   92888
#>  3 Град Београд            1604376   1607606         993632  613974
#>  4 Заводи за изв…             8646      8646           1473    7173
#>  5 Зајечарски ок…            99975     99933          51589   48344
#>  6 Западнобачки …           158970    158713          75112   83601
#>  7 Златиборски о…           248557    248440         112557  135883
#>  8 Иностранство              13251     13251           4083    9168
#>  9 Јабланички ок…           175129    175147          66955  108192
#> 10 Јужнобанатски…           255706    256332         128284  128048
#> # … with 22 more rows, and 5 more variables: `U glasackoj kutiji` <dbl>,
#> #   Nevazeci <dbl>, Vazeci <dbl>, Izlaznost <dbl>, preko_50 <lgl>
```
…
glasovi
#> # A tibble: 672 x 13
#>    `Naziv okruga` Kandidat `Upisani biraci` Primljeni Neupotrebljeni Glasali
#>    <chr>          <chr>               <dbl>     <dbl>          <dbl>   <dbl>
#>  1 Борски округ   Aleksan…           119034    118989          61239   57750
#>  2 Борски округ   Aleksan…           119034    118989          61239   57750
#>  3 Борски округ   Cedomir…           119034    118989          61239   57750
#>  4 Борски округ   Gojko Z…           119034    118989          61239   57750
#>  5 Борски округ   Grupa G…           119034    118989          61239   57750
#>  6 Борски округ   Istvan …           119034    118989          61239   57750
#>  7 Борски округ   Ivica D…           119034    118989          61239   57750
#>  8 Борски округ   Levijat…           119034    118989          61239   57750
#>  9 Борски округ   Metla              119034    118989          61239   57750
#> 10 Борски округ   Milan S…           119034    118989          61239   57750
#> # … with 662 more rows, and 7 more variables: `U glasackoj kutiji` <dbl>,
#> #   Nevazeci <dbl>, Vazeci <dbl>, `Broj glasova` <dbl>, Procenat <dbl>,
#> #   preko_3_posto <lgl>, threshold <dbl>
```
…
``` r
require(stringr)

decimale <- elections %>%
  gather(key = "Kandidat", value = "Broj glasova", -(1:12)) %>%
  mutate(
    last_digit = factor(str_sub(`Broj glasova`, -1, -1))
  )

decimale
#> # A tibble: 177,093 x 15
#>    Okrug `Naziv okruga` Opstina `Naziv opstine` `Biracko mesto` `Upisani biraci`
#>    <dbl> <chr>            <dbl> <chr>                     <dbl>            <dbl>
#>  1     0 Град Београд     70092 Барајево                      1              655
#>  2     0 Град Београд     70092 Барајево                      2             1329
#>  3     0 Град Београд     70092 Барајево                      3              578
#>  4     0 Град Београд     70092 Барајево                      4              706
#>  5     0 Град Београд     70092 Барајево                      5              734
#>  6     0 Град Београд     70092 Барајево                      6              830
#>  7     0 Град Београд     70092 Барајево                      7             1354
#>  8     0 Град Београд     70092 Барајево                      8              726
#>  9     0 Град Београд     70092 Барајево                      9              985
#> 10     0 Град Београд     70092 Барајево                     10              649
#> # … with 177,083 more rows, and 9 more variables: Primljeni <dbl>,
#> #   Neupotrebljeni <dbl>, Glasali <dbl>, `U glasackoj kutiji` <dbl>,
#> #   Nevazeci <dbl>, Vazeci <dbl>, Kandidat <chr>, `Broj glasova` <dbl>,
#> #   last_digit <fct>
```
…
Za svaku simulaciju se pravi analiza poslednjeg decimale. Ovime dobijamo
distribuciju i ocekivane rezultate kada bi glasanje na svakom izbornom
mestu bili *random* (ali *weighted* prema ukupnom procentu glasova).

Ovaj kod je poprilicno spor, tako da okecujte par sati vrtenja
simulacije.

``` r
sim_izbori <- expand_grid(
  sim = 1:100,
  elections
)

sim_izbori
#> # A tibble: 843,300 x 34
#>      sim Okrug `Naziv okruga` Opstina `Naziv opstine` `Biracko mesto`
#>    <int> <dbl> <chr>            <dbl> <chr>                     <dbl>
#>  1     1     0 Град Београд     70092 Барајево                      1
#>  2     1     0 Град Београд     70092 Барајево                      2
#>  3     1     0 Град Београд     70092 Барајево                      3
#>  4     1     0 Град Београд     70092 Барајево                      4
#>  5     1     0 Град Београд     70092 Барајево                      5
#>  6     1     0 Град Београд     70092 Барајево                      6
#>  7     1     0 Град Београд     70092 Барајево                      7
#>  8     1     0 Град Београд     70092 Барајево                      8
#>  9     1     0 Град Београд     70092 Барајево                      9
#> 10     1     0 Град Београд     70092 Барајево                     10
#> # … with 843,290 more rows, and 28 more variables: `Upisani biraci` <dbl>,
#> #   Primljeni <dbl>, Neupotrebljeni <dbl>, Glasali <dbl>, `U glasackoj
#> #   kutiji` <dbl>, Nevazeci <dbl>, Vazeci <dbl>, `Aleksandar Vucic` <dbl>,
#> #   `Ivica Dacic` <dbl>, `Vojislav Seselj` <dbl>, `Istvan Pastor` <dbl>,
#> #   `Aleksandar Sapic` <dbl>, `Gojko Zivkovic` <dbl>, UDS <dbl>, `Muamer
#> #   Zukorlic` <dbl>, Metla <dbl>, `Milan Stamatovic` <dbl>, SDA <dbl>,
#> #   Zavetnici <dbl>, `Narodni Blok` <dbl>, PSG <dbl>, Suverenisti <dbl>,
#> #   `Ujedinjena Dolina` <dbl>, `Grupa Gradjana 1 od 5` <dbl>, `Nek Maske
#> #   Spadnu` <dbl>, `Ruska Stranka\n` <dbl>, `Cedomir Jovanovic` <dbl>,
…
    current[14:34] <- t(as.numeric(table(glasanje)))

    return(current)
  })

# Analiza poslednje decimale
sim_decimale <- sim_rezultati %>%
  gather(key = "Kandidat", value = "Broj glasova", -(1:13)) %>%
  mutate(
    last_digit = factor(str_sub(`Broj glasova`, -1, -1))
  )

sim_decimale
#> # A tibble: 17,709,300 x 16
#>      sim Okrug `Naziv okruga` Opstina `Naziv opstine` `Biracko mesto`
#>    <int> <dbl> <chr>            <dbl> <chr>                     <dbl>
#>  1     1     0 Град Београд     70092 Барајево                      1
#>  2     1     0 Град Београд     70092 Барајево                      2
#>  3     1     0 Град Београд     70092 Барајево                      3
#>  4     1     0 Град Београд     70092 Барајево                      4
#>  5     1     0 Град Београд     70092 Барајево                      5
#>  6     1     0 Град Београд     70092 Барајево                      6
#>  7     1     0 Град Београд     70092 Барајево                      7
#>  8     1     0 Град Београд     70092 Барајево                      8
#>  9     1     0 Град Београд     70092 Барајево                      9
#> 10     1     0 Град Београд     70092 Барајево                     10
#> # … with 17,709,290 more rows, and 10 more variables: `Upisani biraci` <dbl>,
#> #   Primljeni <dbl>, Neupotrebljeni <dbl>, Glasali <dbl>, `U glasackoj
#> #   kutiji` <dbl>, Nevazeci <dbl>, Vazeci <dbl>, Kandidat <chr>, `Broj
#> #   glasova` <dbl>, last_digit <fct>
```
…
